{
    "languageserver": {
        "clangd": {
            "command": "clangd",
            "args": ["--background-index"],
            "rootPatterns": ["compile_flags.txt", "compile_commands.json", ".vim/", ".git/", ".hg/"],
            "filetypes": ["c", "cpp", "objc", "objcpp"]
        }
    },

    "languageserver": {
        "metals": {
            "command": "metals-vim",
            "rootPatterns": ["build.sbt"],
            "filetypes": ["scala", "sbt"]
        }
    },
    "languageserver": {
      "python": {
        "command": "python",
        "args": [
          "-mpyls",
          "-vv",
          "--log-file",
          "/tmp/lsp_python.log"
        ],
        "trace.server": "verbose",
        "filetypes": [
          "python"
        ],
        "settings": {
          "pyls": {
            "enable": true,
            "trace": {
              "server": "verbose"
            },
            "commandPath": "",
            "configurationSources": [
              "pycodestyle"
            ],
            "plugins": {
              "jedi_completion": {
                "enabled": false
              },
              "jedi_hover": {
                "enabled": false
              },
              "jedi_references": {
                "enabled": false
              },
              "jedi_signature_help": {
                "enabled": false
              },
              "jedi_symbols": {
                "enabled": false,
                "all_scopes": false
              },
              "mccabe": {
                "enabled": true,
                "threshold": 15
              },
              "preload": {
                "enabled": true
              },
              "pycodestyle": {
                "enabled": true
              },
              "pydocstyle": {
                "enabled": false,
                "match": "(?!test_).*\\.py",
                "matchDir": "[^\\.].*"
              },
              "pyflakes": {
                "enabled": true
              },
              "rope_completion": {
                "enabled": true
              },
              "yapf": {
                "enabled": true
              }
            }
          }
        }
      }
    }
}
